Log file opened on Sun Nov 12 22:17:50 2017
Host: bs-nix-amd  pid: 26691  rank ID: 0  number of ranks:  1
         :-) GROMACS - gmx mdrun, 2017-dev-20171112-b1f7da0-unknown (-:

                            GROMACS is written by:
     Emile Apol      Rossen Apostolov  Herman J.C. Berendsen    Par Bjelkmar   
 Aldert van Buuren   Rudi van Drunen     Anton Feenstra    Gerrit Groenhof  
 Christoph Junghans   Anca Hamuraru    Vincent Hindriksen Dimitrios Karkoulis
    Peter Kasson        Jiri Kraus      Carsten Kutzner      Per Larsson    
  Justin A. Lemkul   Magnus Lundborg   Pieter Meulenhoff    Erik Marklund   
   Teemu Murtola       Szilard Pall       Sander Pronk      Roland Schulz   
  Alexey Shvetsov     Michael Shirts     Alfons Sijbers     Peter Tieleman  
  Teemu Virolainen  Christian Wennberg    Maarten Wolf   
                           and the project leaders:
        Mark Abraham, Berk Hess, Erik Lindahl, and David van der Spoel

Copyright (c) 1991-2000, University of Groningen, The Netherlands.
Copyright (c) 2001-2017, The GROMACS development team at
Uppsala University, Stockholm University and
the Royal Institute of Technology, Sweden.
check out http://www.gromacs.org for more information.

GROMACS is free software; you can redistribute it and/or modify it
under the terms of the GNU Lesser General Public License
as published by the Free Software Foundation; either version 2.1
of the License, or (at your option) any later version.

GROMACS:      gmx mdrun, version 2017-dev-20171112-b1f7da0-unknown
Executable:   /home/jenkins/workspace/Gromacs_OnDemand_workflow/gromacs/bin/gmx
Data prefix:  /home/jenkins/workspace/Gromacs_OnDemand_workflow/gromacs (source tree)
Working dir:  /mnt/workspace/Gromacs_OnDemand_workflow/regressiontests/complex/awh_multidim
Command line:
  gmx mdrun -notunepme

GROMACS version:    2017-dev-20171112-b1f7da0-unknown
GIT SHA1 hash:      b1f7da0e2ed9cc1137f73633e53cec84cb8833cc
Branched from:      unknown
Precision:          single
Memory model:       64 bit
MPI library:        none
OpenMP support:     disabled
GPU support:        disabled
SIMD instructions:  NONE
FFT library:        fftpack (built-in)
RDTSCP usage:       disabled
TNG support:        enabled
Hwloc support:      hwloc-1.11.0
Tracing support:    disabled
Built on:           2017-11-12 21:06:20
Built by:           jenkins@bs-nix-amd [CMAKE]
Build OS/arch:      Linux 3.19.0-80-generic x86_64
Build CPU vendor:   AMD
Build CPU brand:    AMD FX(tm)-8350 Eight-Core Processor
Build CPU family:   21   Model: 2   Stepping: 0
Build CPU features: aes amd apic avx clfsh cmov cx8 cx16 f16c fma fma4 htt lahf misalignsse mmx msr nonstop_tsc pclmuldq pdpe1gb popcnt pse rdtscp sse2 sse3 sse4a sse4.1 sse4.2 ssse3 xop
C compiler:         /usr/bin/gcc-4.8 GNU 4.8.5
C compiler flags:       -Wundef -Wextra -Wno-missing-field-initializers -Wno-sign-compare -Wpointer-arith -Wall -Wno-unused -Wunused-value -Wunused-parameter -Wno-unknown-pragmas  -O0 -g
C++ compiler:       /usr/bin/g++-4.8 GNU 4.8.5
C++ compiler flags:     -std=c++11  -Wundef -Wextra -Wno-missing-field-initializers -Wpointer-arith -Wmissing-declarations -Wall -Wno-unknown-pragmas  -O0 -g


Running on 1 node with total 8 cores, 8 logical cores
Hardware detected:
  CPU info:
    Vendor: AMD
    Brand:  AMD FX(tm)-8350 Eight-Core Processor           
    Family: 21   Model: 2   Stepping: 0
    Features: aes amd apic avx clfsh cmov cx8 cx16 f16c fma fma4 htt lahf misalignsse mmx msr nonstop_tsc pclmuldq pdpe1gb popcnt pse rdtscp sse2 sse3 sse4a sse4.1 sse4.2 ssse3 xop
    SIMD instructions most likely to fit this hardware: AVX_128_FMA
    SIMD instructions selected at GROMACS compile time: None

  Hardware topology: Full, with devices
    Sockets, cores, and logical processors:
      Socket  0: [   0] [   1] [   2] [   3] [   4] [   5] [   6] [   7]
    Numa nodes:
      Node  0 (8090738688 bytes mem):   0   1   2   3   4   5   6   7
      Latency:
               0
         0  1.00
    Caches:
      L1: 16384 bytes, linesize 64 bytes, assoc. 4, shared 1 ways
      L2: 2097152 bytes, linesize 64 bytes, assoc. 16, shared 2 ways
      L3: 8388608 bytes, linesize 64 bytes, assoc. 64, shared 8 ways
    PCI devices:
      0000:01:05.0  Id: 1002:9616  Class: 0x0300  Numa: 0
      0000:02:00.0  Id: 1969:1083  Class: 0x0200  Numa: 0
      0000:00:11.0  Id: 1002:4391  Class: 0x0106  Numa: 0
      0000:00:14.1  Id: 1002:439c  Class: 0x0101  Numa: 0


Binary not matching hardware - you might be losing performance.
SIMD instructions most likely to fit this hardware: AVX_128_FMA
SIMD instructions selected at GROMACS compile time: None

The current CPU can measure timings more accurately than the code in
gmx mdrun was configured to use. This might affect your simulation
speed as accurate timings are needed for load-balancing.
Please consider rebuilding gmx mdrun with the GMX_USE_RDTSCP=ON CMake option.

++++ PLEASE READ AND CITE THE FOLLOWING REFERENCE ++++
M. J. Abraham, T. Murtola, R. Schulz, S. Páll, J. C. Smith, B. Hess, E.
Lindahl
GROMACS: High performance molecular simulations through multi-level
parallelism from laptops to supercomputers
SoftwareX 1 (2015) pp. 19-25
-------- -------- --- Thank You --- -------- --------


++++ PLEASE READ AND CITE THE FOLLOWING REFERENCE ++++
S. Páll, M. J. Abraham, C. Kutzner, B. Hess, E. Lindahl
Tackling Exascale Software Challenges in Molecular Dynamics Simulations with
GROMACS
In S. Markidis & E. Laure (Eds.), Solving Software Challenges for Exascale 8759 (2015) pp. 3-27
-------- -------- --- Thank You --- -------- --------


++++ PLEASE READ AND CITE THE FOLLOWING REFERENCE ++++
S. Pronk, S. Páll, R. Schulz, P. Larsson, P. Bjelkmar, R. Apostolov, M. R.
Shirts, J. C. Smith, P. M. Kasson, D. van der Spoel, B. Hess, and E. Lindahl
GROMACS 4.5: a high-throughput and highly parallel open source molecular
simulation toolkit
Bioinformatics 29 (2013) pp. 845-54
-------- -------- --- Thank You --- -------- --------


++++ PLEASE READ AND CITE THE FOLLOWING REFERENCE ++++
B. Hess and C. Kutzner and D. van der Spoel and E. Lindahl
GROMACS 4: Algorithms for highly efficient, load-balanced, and scalable
molecular simulation
J. Chem. Theory Comput. 4 (2008) pp. 435-447
-------- -------- --- Thank You --- -------- --------


++++ PLEASE READ AND CITE THE FOLLOWING REFERENCE ++++
D. van der Spoel, E. Lindahl, B. Hess, G. Groenhof, A. E. Mark and H. J. C.
Berendsen
GROMACS: Fast, Flexible and Free
J. Comp. Chem. 26 (2005) pp. 1701-1719
-------- -------- --- Thank You --- -------- --------


++++ PLEASE READ AND CITE THE FOLLOWING REFERENCE ++++
E. Lindahl and B. Hess and D. van der Spoel
GROMACS 3.0: A package for molecular simulation and trajectory analysis
J. Mol. Mod. 7 (2001) pp. 306-317
-------- -------- --- Thank You --- -------- --------


++++ PLEASE READ AND CITE THE FOLLOWING REFERENCE ++++
H. J. C. Berendsen, D. van der Spoel and R. van Drunen
GROMACS: A message-passing parallel molecular dynamics implementation
Comp. Phys. Comm. 91 (1995) pp. 43-56
-------- -------- --- Thank You --- -------- --------

Input Parameters:
   integrator                     = md
   tinit                          = 0
   dt                             = 0.002
   nsteps                         = 20
   init-step                      = 0
   simulation-part                = 1
   comm-mode                      = Linear
   nstcomm                        = 10
   bd-fric                        = 0
   ld-seed                        = 1993
   emtol                          = 10
   emstep                         = 0.01
   niter                          = 20
   fcstep                         = 0
   nstcgsteep                     = 1000
   nbfgscorr                      = 10
   rtpi                           = 0.05
   nstxout                        = 10
   nstvout                        = 10
   nstfout                        = 10
   nstlog                         = 0
   nstcalcenergy                  = 1
   nstenergy                      = 10
   nstxout-compressed             = 0
   compressed-x-precision         = 1000
   cutoff-scheme                  = Verlet
   nstlist                        = 10
   ns-type                        = Grid
   pbc                            = xyz
   periodic-molecules             = false
   verlet-buffer-tolerance        = 0.005
   rlist                          = 1
   coulombtype                    = Reaction-Field
   coulomb-modifier               = Potential-shift
   rcoulomb-switch                = 0
   rcoulomb                       = 1
   epsilon-r                      = 1
   epsilon-rf                     = inf
   vdw-type                       = Cut-off
   vdw-modifier                   = Potential-shift
   rvdw-switch                    = 0
   rvdw                           = 1
   DispCorr                       = No
   table-extension                = 1
   fourierspacing                 = 0.13
   fourier-nx                     = 0
   fourier-ny                     = 0
   fourier-nz                     = 0
   pme-order                      = 4
   ewald-rtol                     = 1e-06
   ewald-rtol-lj                  = 0.001
   lj-pme-comb-rule               = Geometric
   ewald-geometry                 = 0
   epsilon-surface                = 0
   implicit-solvent               = No
   gb-algorithm                   = Still
   nstgbradii                     = 1
   rgbradii                       = 1
   gb-epsilon-solvent             = 80
   gb-saltconc                    = 0
   gb-obc-alpha                   = 1
   gb-obc-beta                    = 0.8
   gb-obc-gamma                   = 4.85
   gb-dielectric-offset           = 0.009
   sa-algorithm                   = Ace-approximation
   sa-surface-tension             = 2.05016
   tcoupl                         = V-rescale
   nsttcouple                     = 10
   nh-chain-length                = 0
   print-nose-hoover-chain-variables = false
   pcoupl                         = No
   pcoupltype                     = Isotropic
   nstpcouple                     = -1
   tau-p                          = 1
   compressibility (3x3):
      compressibility[    0]={ 0.00000e+00,  0.00000e+00,  0.00000e+00}
      compressibility[    1]={ 0.00000e+00,  0.00000e+00,  0.00000e+00}
      compressibility[    2]={ 0.00000e+00,  0.00000e+00,  0.00000e+00}
   ref-p (3x3):
      ref-p[    0]={ 0.00000e+00,  0.00000e+00,  0.00000e+00}
      ref-p[    1]={ 0.00000e+00,  0.00000e+00,  0.00000e+00}
      ref-p[    2]={ 0.00000e+00,  0.00000e+00,  0.00000e+00}
   refcoord-scaling               = No
   posres-com (3):
      posres-com[0]= 0.00000e+00
      posres-com[1]= 0.00000e+00
      posres-com[2]= 0.00000e+00
   posres-comB (3):
      posres-comB[0]= 0.00000e+00
      posres-comB[1]= 0.00000e+00
      posres-comB[2]= 0.00000e+00
   QMMM                           = false
   QMconstraints                  = 0
   QMMMscheme                     = 0
   MMChargeScaleFactor            = 1
qm-opts:
   ngQM                           = 0
   constraint-algorithm           = Lincs
   continuation                   = false
   Shake-SOR                      = false
   shake-tol                      = 0.0001
   lincs-order                    = 4
   lincs-iter                     = 1
   lincs-warnangle                = 30
   nwall                          = 0
   wall-type                      = 9-3
   wall-r-linpot                  = -1
   wall-atomtype[0]               = -1
   wall-atomtype[1]               = -1
   wall-density[0]                = 0
   wall-density[1]                = 0
   wall-ewald-zfac                = 3
   pull                           = true
   pull-cylinder-r                = 1.5
   pull-constr-tol                = 1e-06
   pull-print-COM                 = false
   pull-print-ref-value           = false
   pull-print-components          = false
   pull-nstxout                   = 50
   pull-nstfout                   = 50
   pull-ngroups                   = 6
   pull-group 0:
     atom: not available
     weight: not available
     pbcatom                        = -1
   pull-group 1:
     atom (1):
        atom[0]=4
     weight: not available
     pbcatom                        = -1
   pull-group 2:
     atom (1):
        atom[0]=6
     weight: not available
     pbcatom                        = -1
   pull-group 3:
     atom (1):
        atom[0]=8
     weight: not available
     pbcatom                        = -1
   pull-group 4:
     atom (1):
        atom[0]=14
     weight: not available
     pbcatom                        = -1
   pull-group 5:
     atom (1):
        atom[0]=16
     weight: not available
     pbcatom                        = -1
   pull-ncoords                   = 2
   pull-coord 0:
   type                           = external-potential
   potential-provider             = awh
   geometry                       = dihedral
   group[0]                       = 1
   group[1]                       = 2
   group[2]                       = 2
   group[3]                       = 3
   group[4]                       = 3
   group[5]                       = 4
   dim (3):
      dim[0]=1
      dim[1]=1
      dim[2]=1
   origin (3):
      origin[0]= 0.00000e+00
      origin[1]= 0.00000e+00
      origin[2]= 0.00000e+00
   vec (3):
      vec[0]= 0.00000e+00
      vec[1]= 0.00000e+00
      vec[2]= 0.00000e+00
   start                          = false
   init                           = 0
   rate                           = 0
   k                              = 4000
   kB                             = 1000
   pull-coord 1:
   type                           = external-potential
   potential-provider             = awh
   geometry                       = dihedral
   group[0]                       = 2
   group[1]                       = 3
   group[2]                       = 3
   group[3]                       = 4
   group[4]                       = 4
   group[5]                       = 5
   dim (3):
      dim[0]=1
      dim[1]=1
      dim[2]=1
   origin (3):
      origin[0]= 0.00000e+00
      origin[1]= 0.00000e+00
      origin[2]= 0.00000e+00
   vec (3):
      vec[0]= 0.00000e+00
      vec[1]= 0.00000e+00
      vec[2]= 0.00000e+00
   start                          = false
   init                           = 0
   rate                           = 0
   k                              = 4000
   kB                             = 1000
   awh                            = true
   awh-potential                  = convolved
   awh-seed                       = 955431239
   awh-nstout                     = 10
   awh-nstsample                  = 10
   awh-nsamples-update            = 1
   awh-share-bias-multisim        = false
   awh-nbias                      = 1
   awh1-error-init                = 10
   awh1-growth                    = exp-linear
   awh1-target                    = constant
   awh1-target-beta-scalng        = 0
   awh1-target-cutoff             = 0
   awh1-user-data                 = false
   awh1-share-group               = 0
   awh1-equilibrate-histogram     = false
   awh1-ndim                      = 2
   awh1-dim1:
    coord-provider                 = pull
    coord-index                    = 2
    start                          = 150
    end                            = 180
    period                         = 360
    force-constant                 = 4000
    diffusion                      = 0.1
    start                          = 150
    end                            = 180
    cover-diameter                 = 0
   awh1-dim2:
    coord-provider                 = pull
    coord-index                    = 1
    start                          = 178
    end                            = -178
    period                         = 360
    force-constant                 = 4000
    diffusion                      = 0.1
    start                          = 178
    end                            = -178
    cover-diameter                 = 0
   rotation                       = false
   interactiveMD                  = false
   disre                          = No
   disre-weighting                = Conservative
   disre-mixed                    = false
   dr-fc                          = 1000
   dr-tau                         = 0
   nstdisreout                    = 100
   orire-fc                       = 0
   orire-tau                      = 0
   nstorireout                    = 100
   free-energy                    = no
   cos-acceleration               = 0
   deform (3x3):
      deform[    0]={ 0.00000e+00,  0.00000e+00,  0.00000e+00}
      deform[    1]={ 0.00000e+00,  0.00000e+00,  0.00000e+00}
      deform[    2]={ 0.00000e+00,  0.00000e+00,  0.00000e+00}
   simulated-tempering            = false
   swapcoords                     = no
   userint1                       = 0
   userint2                       = 0
   userint3                       = 0
   userint4                       = 0
   userreal1                      = 0
   userreal2                      = 0
   userreal3                      = 0
   userreal4                      = 0
   applied-forces:
     electric-field:
       x:
         E0                       = 0
         omega                    = 0
         t0                       = 0
         sigma                    = 0
       y:
         E0                       = 0
         omega                    = 0
         t0                       = 0
         sigma                    = 0
       z:
         E0                       = 0
         omega                    = 0
         t0                       = 0
         sigma                    = 0
grpopts:
   nrdf:          51
   ref-t:         300
   tau-t:         0.5
annealing:          No
annealing-npoints:           0
   acc:	           0           0           0
   nfreeze:           N           N           N
   energygrp-flags[  0]: 0

Changing nstlist from 10 to 100, rlist from 1 to 1.198


NOTE: GROMACS was compiled without OpenMP and (thread-)MPI support, can only use a single CPU core
System total charge: -0.000
Reaction-Field:
epsRF = 0, rc = 1, krf = 0.5, crf = 1.5, epsfac = 138.935
The electrostatics potential has its minimum at r = 1
Potential shift: LJ r^-12: -1.000e+00 r^-6: -1.000e+00
Cut-off's:   NS: 1.198   Coulomb: 1   LJ: 1
Generated table with 1099 data points for 1-4 COUL.
Tabscale = 500 points/nm
Generated table with 1099 data points for 1-4 LJ6.
Tabscale = 500 points/nm
Generated table with 1099 data points for 1-4 LJ12.
Tabscale = 500 points/nm

Using plain C 4x4 non-bonded kernels


WARNING: Using the slow plain C kernels. This should
not happen during routine usage on supported platforms.
Using a dual pair-list setup updated with dynamic pruning:
  outer list: updated every 100 steps, buffer 0.198 nm, rlist 1.198 nm
  inner list: updated every  15 steps, buffer 0.001 nm, rlist 1.001 nm
Using Lorentz-Berthelot Lennard-Jones combination rule

Removing pbc first time

NOTE: Thread affinity setting failed. This can cause performance degradation.
      If you think your settings are correct, ask on the gmx-users list.

Will apply potential COM pulling
with 2 pull coordinates and 6 groups
Pull group 1:     1 atoms, mass    12.010
Pull group 2:     1 atoms, mass    14.010
Pull group 3:     1 atoms, mass    12.010
Pull group 4:     1 atoms, mass    12.010
Pull group 5:     1 atoms, mass    14.010

Initializing LINear Constraint Solver

++++ PLEASE READ AND CITE THE FOLLOWING REFERENCE ++++
B. Hess and H. Bekker and H. J. C. Berendsen and J. G. E. M. Fraaije
LINCS: A Linear Constraint Solver for molecular simulations
J. Comp. Chem. 18 (1997) pp. 1463-1472
-------- -------- --- Thank You --- -------- --------

The number of constraints is 12

Intra-simulation communication will occur every 1 steps.
Center of mass motion removal mode is Linear
We have the following groups for center of mass motion removal:
  0:  System

++++ PLEASE READ AND CITE THE FOLLOWING REFERENCE ++++
G. Bussi, D. Donadio and M. Parrinello
Canonical sampling through velocity rescaling
J. Chem. Phys. 126 (2007) pp. 014101
-------- -------- --- Thank You --- -------- --------

There are: 22 Atoms

++++ PLEASE READ AND CITE THE FOLLOWING REFERENCE ++++
V. Lindahl, J. Lidmar, B. Hess
Accelerated weight histogram method for exploring free energy landscapes
J. Chem. Phys. 141 (2014) pp. 044110
-------- -------- --- Thank You --- -------- --------


awh1: initial force correlation block length = 0.02 ps
awh1: force correlation number of blocks = 64
Constraining the starting coordinates (step 0)

Constraining the coordinates at t0-dt (step 0)
RMS relative constraint deviation after constraining: 7.97e-07
Initial temperature: 318.927 K

Started mdrun on rank 0 Sun Nov 12 22:17:50 2017
           Step           Time
              0        0.00000

   Energies (kJ/mol)
           Bond          Angle    Proper Dih.  Improper Dih.          LJ-14
    5.43299e+00    2.10010e+01    4.27058e+01    1.32238e+00    1.70049e+01
     Coulomb-14        LJ (SR)   Coulomb (SR)   COM Pull En.      Potential
    2.13517e+02   -4.11047e+00   -3.41488e+02    6.80615e+00   -3.78080e+01
    Kinetic En.   Total Energy  Conserved En.    Temperature Pressure (bar)
    3.22657e+01   -5.54224e+00   -5.54224e+00    1.52183e+02    4.27312e+01
   Constr. rmsd
    9.38970e-07

           Step           Time
             20        0.04000

Writing checkpoint, step 20 at Sun Nov 12 22:17:50 2017


   Energies (kJ/mol)
           Bond          Angle    Proper Dih.  Improper Dih.          LJ-14
    8.75830e+00    2.61031e+01    4.11542e+01    5.21252e-01    1.48988e+01
     Coulomb-14        LJ (SR)   Coulomb (SR)   COM Pull En.      Potential
    1.88954e+02   -4.25544e+00   -3.24237e+02   -1.34678e+00   -4.94491e+01
    Kinetic En.   Total Energy  Conserved En.    Temperature Pressure (bar)
    4.25999e+01   -6.84925e+00   -9.82658e+00    2.00925e+02   -6.76132e+01
   Constr. rmsd
    8.95063e-07

	<======  ###############  ==>
	<====  A V E R A G E S  ====>
	<==  ###############  ======>

	Statistics over 21 steps using 21 frames

   Energies (kJ/mol)
           Bond          Angle    Proper Dih.  Improper Dih.          LJ-14
    5.97434e+00    2.02941e+01    4.50687e+01    2.69767e+00    1.59213e+01
     Coulomb-14        LJ (SR)   Coulomb (SR)   COM Pull En.      Potential
    2.05724e+02   -4.78981e+00   -3.36760e+02    4.08648e+00   -4.17830e+01
    Kinetic En.   Total Energy  Conserved En.    Temperature Pressure (bar)
    3.66347e+01   -5.14836e+00   -7.52374e+00    1.72790e+02    3.21510e+01
   Constr. rmsd
    0.00000e+00

   Total Virial (kJ/mol)
    2.45801e+01   -3.07906e+01   -4.88827e+00
   -3.07906e+01   -4.42179e+01   -4.08049e+01
   -4.88831e+00   -4.08049e+01   -2.21429e+01

   Pressure (bar)
   -1.53964e+01    3.76292e+01    1.05418e+01
    3.76293e+01    7.18141e+01    4.97706e+01
    1.05419e+01    4.97706e+01    4.00353e+01


	M E G A - F L O P S   A C C O U N T I N G

 NB=Group-cutoff nonbonded kernels    NxN=N-by-N cluster Verlet kernels
 RF=Reaction-Field  VdW=Van der Waals  QSTab=quadratic-spline table
 W3=SPC/TIP3p  W4=TIP4p (single or pairs)
 V&F=Potential and force  V=Potential only  F=Force only

 Computing:                               M-Number         M-Flops  % Flops
-----------------------------------------------------------------------------
 Pair Search distance check               0.000402           0.004     0.4
 NxN RF Elec. + LJ [V&F]                  0.006888           0.372    42.5
 NxN RF Electrostatics [V&F]              0.000168           0.006     0.7
 1,4 nonbonded interactions               0.000861           0.077     8.9
 Shift-X                                  0.000022           0.000     0.0
 Bonds                                    0.000189           0.011     1.3
 Angles                                   0.000756           0.127    14.5
 Propers                                  0.000798           0.183    20.9
 Impropers                                0.000084           0.017     2.0
 Virial                                   0.001407           0.025     2.9
 Stop-CM                                  0.000088           0.001     0.1
 Calc-Ekin                                0.000506           0.014     1.6
 Lincs                                    0.000276           0.017     1.9
 Lincs-Mat                                0.002484           0.010     1.1
 Constraint-V                             0.000528           0.004     0.5
 Constraint-Vir                           0.000252           0.006     0.7
-----------------------------------------------------------------------------
 Total                                                       0.874   100.0
-----------------------------------------------------------------------------


     R E A L   C Y C L E   A N D   T I M E   A C C O U N T I N G

On 1 MPI rank

 Computing:          Num   Num      Call    Wall time         Giga-Cycles
                     Ranks Threads  Count      (s)         total sum    %
-----------------------------------------------------------------------------
 Neighbor search        1    1          1       0.000          0.001   0.6
 Force                  1    1         21       0.002          0.009   8.9
 NB X/F buffer ops.     1    1         41       0.000          0.000   0.1
 COM pull force         1    1         21       0.000          0.000   0.1
 AWH                    1    1         21       0.002          0.010   9.9
 Write traj.            1    1          3       0.018          0.075  73.9
 Update                 1    1         21       0.000          0.000   0.4
 Constraints            1    1         21       0.000          0.001   0.8
 Rest                                           0.001          0.005   5.4
-----------------------------------------------------------------------------
 Total                                          0.025          0.101 100.0
-----------------------------------------------------------------------------

               Core t (s)   Wall t (s)        (%)
       Time:        0.025        0.025      100.0
                 (ns/day)    (hour/ns)
Performance:      145.837        0.165
Finished mdrun on rank 0 Sun Nov 12 22:17:50 2017
